"camp","custcnt","trans","sls","st","region"
"UPS Store 1","302208","309571","5133954.536320","NA",""
"UPS Store 1","10901","20857","1397928.200496","CA","PACIFIC"
"UPS Store 1","26","57","2652.741976","_NA_US_",""
"UPS Store 1","2038","3150","173640.747247","TN","SOUTH EAST"
"UPS Store 1","8447","15087","924986.476530","NJ","NORTH EAST"
"UPS Store 1","4234","7319","451769.212207","IL","MID-WESTERN"
"UPS Store 1","3747","6203","369422.393175","NC","SOUTH EAST"
"UPS Store 1","5153","9588","538817.127443","MA","NORTH EAST"
"UPS Store 1","11824","22221","1386744.858244","NY","NORTH EAST"
"UPS Store 1","2757","4805","312423.184329","OH","NORTH EAST"
"UPS Store 1","4512","7882","486937.232457","PA","NORTH EAST"
"UPS Store 1","4428","8133","538827.201596","VA","SOUTH EAST"
"UPS Store 1","6762","12508","823420.859311","TX","SOUTH CENTRAL"
"UPS Store 1","783","1419","94234.861799","OK","SOUTH CENTRAL"
"UPS Store 1","2087","3379","224846.017527","OR","PACIFIC"
"UPS Store 1","526","784","44512.419270","MS",""
"UPS Store 1","6290","10732","640284.016832","FL","SOUTH EAST"
"UPS Store 1","1477","2479","149300.353166","IN","MID-WESTERN"
"UPS Store 1","1136","2018","134182.529675","WI","MID-WESTERN"
"UPS Store 1","1482","2635","166409.445431","MN",""
"UPS Store 1","645","1087","65795.762812","IA","MID-WESTERN"
"UPS Store 1","3803","6830","432871.912998","MD","MID-ATLANTIC"
"UPS Store 1","1633","2504","131126.998541","SC","SOUTH EAST"
"UPS Store 1","2930","4839","274187.955161","DE","MID-ATLANTIC"
"UPS Store 1","1087","1832","118246.307845","AL","SOUTH EAST"
"UPS Store 1","1858","3153","194897.450320","CT","NORTH EAST"
"UPS Store 1","774","1287","77618.347942","RI","NORTH EAST"
"UPS Store 1","289","516","39020.244788","NE","MID-WESTERN"
"UPS Store 1","1817","3185","209637.071321","WA","NORTH EAST"
"UPS Store 1","2940","5095","316889.758584","GA","SOUTH EAST"
"UPS Store 1","3520","6475","424077.897068","MI","MID-WESTERN"
"UPS Store 1","1319","2372","159269.149443","CO","WEST"
"UPS Store 1","1114","1986","128863.444332","MO","MID-WESTERN"
"UPS Store 1","1189","2033","142738.947967","LA",""
"UPS Store 1","429","690","40031.201937","AR","SOUTH CENTRAL"
"UPS Store 1","864","1446","94253.318817","KY",""
"UPS Store 1","356","585","34615.150022","WV",""
"UPS Store 1","151","262","16371.674499","ND","MID-WESTERN"
"UPS Store 1","200","335","23800.391348","VT","NORTH EAST"
"UPS Store 1","246","412","26122.900681","ID","NORTH EAST"
"UPS Store 1","291","470","31729.119254","ME","NORTH EAST"
"UPS Store 1","80","120","7135.705365","WY","WEST"
"UPS Store 1","1259","2334","157894.940058","AZ","SOUTH EAST"
"UPS Store 1","529","852","59425.047907","NH","NORTH EAST"
"UPS Store 1","337","617","47222.699711","NM","WEST"
"UPS Store 1","580","1027","76410.086158","KS","MID-WESTERN"
"UPS Store 1","121","196","14051.790391","SD","MID-WESTERN"
"UPS Store 1","236","257","6419.756929","",""
"UPS Store 1","47","87","6273.939156","AP","PACIFIC"
"UPS Store 1","595","1144","72253.200430","NV","WEST"
"UPS Store 1","142","241","17591.943091","MT","NORTH EAST"
"UPS Store 1","454","785","53211.963374","UT","WEST"
"UPS Store 1","52","87","4759.745826","PR","NORTH EAST"
"UPS Store 1","239","474","31313.537110","HI","PACIFIC"
"UPS Store 1","484","1052","72497.441489","DC","SOUTH EAST"
"UPS Store 1","95","169","14304.869361","AK","NORTH EAST"
"UPS Store 1","64","103","8353.513961","AE","NORTH EAST"
"UPS Store 1","15","27","1575.534178","VI","SOUTH EAST"
"UPS Store 1","6","11","542.500093","GU","PACIFIC"
"UPS Store 1","9","13","667.264925","AA","NORTH EAST"
"UPS Store 5","1664","2548","125125.001578","TN","SOUTH EAST"
"UPS Store 5","293236","300294","4897730.882737","NA",""
"UPS Store 5","7106","12766","755903.926862","NJ","NORTH EAST"
"UPS Store 5","3364","5847","336779.272055","IL","MID-WESTERN"
"UPS Store 5","3027","4955","271483.406588","NC","SOUTH EAST"
"UPS Store 5","4144","7699","399812.062839","MA","NORTH EAST"
"UPS Store 5","9223","17557","1048117.311770","NY","NORTH EAST"
"UPS Store 5","2070","3649","225559.020753","OH","NORTH EAST"
"UPS Store 5","3567","6295","369684.261366","PA","NORTH EAST"
"UPS Store 5","3468","6519","409890.344464","VA","SOUTH EAST"
"UPS Store 5","5384","10157","651784.813748","TX","SOUTH CENTRAL"
"UPS Store 5","620","1141","70281.759208","OK","SOUTH CENTRAL"
"UPS Store 5","1783","2859","184043.961718","OR","PACIFIC"
"UPS Store 5","422","611","30866.352611","MS",""
"UPS Store 5","5159","8807","509539.328692","FL","SOUTH EAST"
"UPS Store 5","1181","1971","107215.914471","IN","MID-WESTERN"
"UPS Store 5","873","1584","99662.855125","WI","MID-WESTERN"
"UPS Store 5","1105","2013","121651.591608","MN",""
"UPS Store 5","512","839","48456.795848","IA","MID-WESTERN"
"UPS Store 5","2980","5437","329129.284404","MD","MID-ATLANTIC"
"UPS Store 5","1343","2053","95343.736947","SC","SOUTH EAST"
"UPS Store 5","2790","4623","259883.394732","DE","MID-ATLANTIC"
"UPS Store 5","862","1429","88881.162821","AL","SOUTH EAST"
"UPS Store 5","1482","2539","146404.578739","CT","NORTH EAST"
"UPS Store 5","622","1044","60484.193659","RI","NORTH EAST"
"UPS Store 5","222","401","28729.298567","NE","MID-WESTERN"
"UPS Store 5","1342","2437","151257.752190","WA","NORTH EAST"
"UPS Store 5","2327","4067","243481.486172","GA","SOUTH EAST"
"UPS Store 5","2675","5035","318052.462013","MI","MID-WESTERN"
"UPS Store 5","8417","16597","1080305.995675","CA","PACIFIC"
"UPS Store 5","988","1845","115694.960555","CO","WEST"
"UPS Store 5","841","1543","94749.648282","MO","MID-WESTERN"
"UPS Store 5","939","1612","107428.971133","LA",""
"UPS Store 5","328","534","29033.310466","AR","SOUTH CENTRAL"
"UPS Store 5","667","1107","68390.385593","KY",""
"UPS Store 5","298","489","27001.690508","WV",""
"UPS Store 5","117","208","12646.504859","ND","MID-WESTERN"
"UPS Store 5","152","255","18405.548183","VT","NORTH EAST"
"UPS Store 5","183","311","18987.377518","ID","NORTH EAST"
"UPS Store 5","207","346","20183.970146","ME","NORTH EAST"
"UPS Store 5","64","94","5459.287447","WY","WEST"
"UPS Store 5","990","1854","125635.162100","AZ","SOUTH EAST"
"UPS Store 5","395","637","43041.821008","NH","NORTH EAST"
"UPS Store 5","257","504","36235.212065","NM","WEST"
"UPS Store 5","451","819","59736.400764","KS","MID-WESTERN"
"UPS Store 5","92","143","10711.750348","SD","MID-WESTERN"
"UPS Store 5","234","254","6142.935781","",""
"UPS Store 5","41","79","5444.049156","AP","PACIFIC"
"UPS Store 5","462","869","53234.872505","NV","WEST"
"UPS Store 5","100","176","11220.244897","MT","NORTH EAST"
"UPS Store 5","331","588","36333.096313","UT","WEST"
"UPS Store 5","45","70","4264.799323","PR","NORTH EAST"
"UPS Store 5","183","359","23909.085996","HI","PACIFIC"
"UPS Store 5","359","838","55483.650615","DC","SOUTH EAST"
"UPS Store 5","68","127","9979.109361","AK","NORTH EAST"
"UPS Store 5","16","47","2622.988095","_NA_US_",""
"UPS Store 5","56","94","7249.213961","AE","NORTH EAST"
"UPS Store 5","11","20","950.644178","VI","SOUTH EAST"
"UPS Store 5","6","11","542.500093","GU","PACIFIC"
"UPS Store 5","9","13","667.264925","AA","NORTH EAST"
"UPS Store 6","302086","309445","5132722.267491","NA",""
"UPS Store 6","10899","20852","1397774.220496","CA","PACIFIC"
"UPS Store 6","24","55","2644.069677","_NA_US_",""
"UPS Store 6","2038","3150","173640.747247","TN","SOUTH EAST"
"UPS Store 6","8438","15072","924528.822877","NJ","NORTH EAST"
"UPS Store 6","4233","7317","451703.212207","IL","MID-WESTERN"
"UPS Store 6","3747","6203","369422.393175","NC","SOUTH EAST"
"UPS Store 6","5153","9588","538817.127443","MA","NORTH EAST"
"UPS Store 6","11819","22212","1386543.750880","NY","NORTH EAST"
"UPS Store 6","2756","4801","312421.154507","OH","NORTH EAST"
"UPS Store 6","4509","7872","486817.732457","PA","NORTH EAST"
"UPS Store 6","4428","8133","538827.201596","VA","SOUTH EAST"
"UPS Store 6","6760","12502","823391.339591","TX","SOUTH CENTRAL"
"UPS Store 6","782","1416","94194.071799","OK","SOUTH CENTRAL"
"UPS Store 6","2087","3379","224846.017527","OR","PACIFIC"
"UPS Store 6","526","784","44512.419270","MS",""
"UPS Store 6","6289","10731","640280.591192","FL","SOUTH EAST"
"UPS Store 6","1476","2478","149297.471634","IN","MID-WESTERN"
"UPS Store 6","1136","2018","134182.529675","WI","MID-WESTERN"
"UPS Store 6","1479","2628","166289.954721","MN",""
"UPS Store 6","645","1087","65795.762812","IA","MID-WESTERN"
"UPS Store 6","3803","6830","432871.912998","MD","MID-ATLANTIC"
"UPS Store 6","1631","2498","130949.998541","SC","SOUTH EAST"
"UPS Store 6","2924","4812","274089.960423","DE","MID-ATLANTIC"
"UPS Store 6","1086","1831","118241.580969","AL","SOUTH EAST"
"UPS Store 6","1857","3151","194767.450320","CT","NORTH EAST"
"UPS Store 6","773","1278","77613.347942","RI","NORTH EAST"
"UPS Store 6","289","516","39020.244788","NE","MID-WESTERN"
"UPS Store 6","1817","3185","209637.071321","WA","NORTH EAST"
"UPS Store 6","2940","5095","316889.758584","GA","SOUTH EAST"
"UPS Store 6","3519","6472","423997.917068","MI","MID-WESTERN"
"UPS Store 6","1319","2372","159269.149443","CO","WEST"
"UPS Store 6","1114","1986","128863.444332","MO","MID-WESTERN"
"UPS Store 6","1189","2033","142738.947967","LA",""
"UPS Store 6","429","690","40031.201937","AR","SOUTH CENTRAL"
"UPS Store 6","864","1446","94253.318817","KY",""
"UPS Store 6","356","585","34615.150022","WV",""
"UPS Store 6","151","262","16371.674499","ND","MID-WESTERN"
"UPS Store 6","200","335","23800.391348","VT","NORTH EAST"
"UPS Store 6","246","412","26122.900681","ID","NORTH EAST"
"UPS Store 6","291","470","31729.119254","ME","NORTH EAST"
"UPS Store 6","80","120","7135.705365","WY","WEST"
"UPS Store 6","1259","2334","157894.940058","AZ","SOUTH EAST"
"UPS Store 6","529","852","59425.047907","NH","NORTH EAST"
"UPS Store 6","336","616","47216.721258","NM","WEST"
"UPS Store 6","580","1027","76410.086158","KS","MID-WESTERN"
"UPS Store 6","120","195","14049.296515","SD","MID-WESTERN"
"UPS Store 6","235","256","6419.710919","",""
"UPS Store 6","47","87","6273.939156","AP","PACIFIC"
"UPS Store 6","595","1144","72253.200430","NV","WEST"
"UPS Store 6","142","241","17591.943091","MT","NORTH EAST"
"UPS Store 6","453","784","53209.226475","UT","WEST"
"UPS Store 6","52","87","4759.745826","PR","NORTH EAST"
"UPS Store 6","239","474","31313.537110","HI","PACIFIC"
"UPS Store 6","483","1051","72425.451489","DC","SOUTH EAST"
"UPS Store 6","95","169","14304.869361","AK","NORTH EAST"
"UPS Store 6","64","103","8353.513961","AE","NORTH EAST"
"UPS Store 6","15","27","1575.534178","VI","SOUTH EAST"
"UPS Store 6","6","11","542.500093","GU","PACIFIC"
"UPS Store 6","9","13","667.264925","AA","NORTH EAST"
"UPS Store 2","316598","325897","5457898.584705","NA",""
"UPS Store 2","249","271","6595.809137","",""
"UPS Store 2","7342","12639","684429.209495","FL","SOUTH EAST"
"UPS Store 2","65092","65643","255580.951131","_NA_US_",""
"UPS Store 2","1366","2395","144724.688084","WI","MID-WESTERN"
"UPS Store 2","13084","24320","1487501.991108","CA","PACIFIC"
"UPS Store 2","4217","7572","455534.720661","MI","MID-WESTERN"
"UPS Store 2","5234","9012","519751.197921","PA","NORTH EAST"
"UPS Store 2","13923","25687","1482828.352597","NY","NORTH EAST"
"UPS Store 2","9910","17301","980101.797240","NJ","NORTH EAST"
"UPS Store 2","2139","3568","207080.273085","CT","NORTH EAST"
"UPS Store 2","4918","8315","481304.118088","IL","MID-WESTERN"
"UPS Store 2","1786","3084","181396.944653","MN",""
"UPS Store 2","407","738","50913.909422","NM","WEST"
"UPS Store 2","2337","3627","185469.483861","TN","SOUTH EAST"
"UPS Store 2","1563","2750","170051.363534","CO","WEST"
"UPS Store 2","3573","5756","290878.964297","DE","MID-ATLANTIC"
"UPS Store 2","429","693","38474.309829","WV",""
"UPS Store 2","1313","2299","137198.722990","MO","MID-WESTERN"
"UPS Store 2","1487","2685","166233.619068","AZ","SOUTH EAST"
"UPS Store 2","3305","5612","334970.815961","OH","NORTH EAST"
"UPS Store 2","8053","14454","880817.578687","TX","SOUTH CENTRAL"
"UPS Store 2","767","1260","71981.973334","IA","MID-WESTERN"
"UPS Store 2","1720","2836","158736.970766","IN","MID-WESTERN"
"UPS Store 2","1278","2121","125846.947053","AL","SOUTH EAST"
"UPS Store 2","4451","7255","400831.729320","NC","SOUTH EAST"
"UPS Store 2","5267","9455","574068.824734","VA","SOUTH EAST"
"UPS Store 2","4481","7905","463884.334153","MD","MID-ATLANTIC"
"UPS Store 2","2502","4060","238099.891424","OR","PACIFIC"
"UPS Store 2","281","541","32930.766652","HI","PACIFIC"
"UPS Store 2","346","593","41672.149881","NE","MID-WESTERN"
"UPS Store 2","302","490","28655.972219","ID","NORTH EAST"
"UPS Store 2","3435","5916","337697.261056","GA","SOUTH EAST"
"UPS Store 2","615","899","49019.524225","MS",""
"UPS Store 2","883","1461","83156.863120","RI","NORTH EAST"
"UPS Store 2","632","1017","63919.712995","NH","NORTH EAST"
"UPS Store 2","694","1307","76978.995544","NV","WEST"
"UPS Store 2","900","1592","99232.967168","OK","SOUTH CENTRAL"
"UPS Store 2","1004","1668","101680.420001","KY",""
"UPS Store 2","2198","3797","226856.472216","WA","NORTH EAST"
"UPS Store 2","235","392","25495.032162","VT","NORTH EAST"
"UPS Store 2","5962","11030","575718.308554","MA","NORTH EAST"
"UPS Store 2","346","554","33940.599270","ME","NORTH EAST"
"UPS Store 2","124","210","15517.679023","AK","NORTH EAST"
"UPS Store 2","1878","2894","140857.136898","SC","SOUTH EAST"
"UPS Store 2","1369","2289","150269.840759","LA",""
"UPS Store 2","697","1198","80862.378419","KS","MID-WESTERN"
"UPS Store 2","571","1199","76712.261065","DC","SOUTH EAST"
"UPS Store 2","168","279","18844.230492","MT","NORTH EAST"
"UPS Store 2","179","298","17555.074986","ND","MID-WESTERN"
"UPS Store 2","150","242","15623.566653","SD","MID-WESTERN"
"UPS Store 2","507","803","44134.452651","AR","SOUTH CENTRAL"
"UPS Store 2","560","942","57006.520803","UT","WEST"
"UPS Store 2","61","96","4844.514410","PR","NORTH EAST"
"UPS Store 2","12","16","679.402655","AA","NORTH EAST"
"UPS Store 2","91","134","7995.141356","WY","WEST"
"UPS Store 2","57","108","6612.284614","AP","PACIFIC"
"UPS Store 2","75","120","8783.945814","AE","NORTH EAST"
"UPS Store 2","7","12","545.613788","GU","PACIFIC"
"UPS Store 2","15","27","1575.534178","VI","SOUTH EAST"
"UPS Store 3","292140","299305","4872313.800553","NA",""
"UPS Store 3","10295","19908","1310888.284857","CA","PACIFIC"
"UPS Store 3","28","57","2653.222011","_NA_US_",""
"UPS Store 3","1963","3050","164223.985387","TN","SOUTH EAST"
"UPS Store 3","8175","14681","890839.792718","NJ","NORTH EAST"
"UPS Store 3","4059","7044","426123.726464","IL","MID-WESTERN"
"UPS Store 3","3574","5946","345992.318244","NC","SOUTH EAST"
"UPS Store 3","4931","9094","503097.664225","MA","NORTH EAST"
"UPS Store 3","11367","21511","1322770.589987","NY","NORTH EAST"
"UPS Store 3","2613","4592","293883.614238","OH","NORTH EAST"
"UPS Store 3","4341","7636","463840.072077","PA","NORTH EAST"
"UPS Store 3","4242","7833","510501.756704","VA","SOUTH EAST"
"UPS Store 3","6458","12012","782203.869021","TX","SOUTH CENTRAL"
"UPS Store 3","754","1367","88936.409908","OK","SOUTH CENTRAL"
"UPS Store 3","1986","3219","211912.500467","OR","PACIFIC"
"UPS Store 3","505","760","43171.078788","MS",""
"UPS Store 3","6040","10371","611023.359893","FL","SOUTH EAST"
"UPS Store 3","1411","2381","140231.314832","IN","MID-WESTERN"
"UPS Store 3","1082","1930","125332.839351","WI","MID-WESTERN"
"UPS Store 3","1410","2531","155926.904313","MN",""
"UPS Store 3","620","1051","62310.074995","IA","MID-WESTERN"
"UPS Store 3","3677","6662","416320.551335","MD","MID-ATLANTIC"
"UPS Store 3","1582","2434","125443.506943","SC","SOUTH EAST"
"UPS Store 3","2870","4759","270332.143827","DE","MID-ATLANTIC"
"UPS Store 3","1051","1774","113178.748925","AL","SOUTH EAST"
"UPS Store 3","1792","3066","186915.561022","CT","NORTH EAST"
"UPS Store 3","756","1259","75239.987789","RI","NORTH EAST"
"UPS Store 3","275","492","36206.274523","NE","MID-WESTERN"
"UPS Store 3","1710","3021","196574.838618","WA","NORTH EAST"
"UPS Store 3","2815","4909","300501.856538","GA","SOUTH EAST"
"UPS Store 3","3368","6264","405282.199785","MI","MID-WESTERN"
"UPS Store 3","1227","2246","148655.518164","CO","WEST"
"UPS Store 3","1061","1910","122111.895143","MO","MID-WESTERN"
"UPS Store 3","1152","1978","136749.392198","LA",""
"UPS Store 3","406","664","37769.101522","AR","SOUTH CENTRAL"
"UPS Store 3","818","1370","88400.211158","KY",""
"UPS Store 3","351","578","34056.860014","WV",""
"UPS Store 3","147","258","16020.714499","ND","MID-WESTERN"
"UPS Store 3","191","317","20992.523722","VT","NORTH EAST"
"UPS Store 3","229","393","24514.799807","ID","NORTH EAST"
"UPS Store 3","276","447","29464.966854","ME","NORTH EAST"
"UPS Store 3","80","120","7135.705365","WY","WEST"
"UPS Store 3","1191","2238","150088.877809","AZ","SOUTH EAST"
"UPS Store 3","502","799","54584.944086","NH","NORTH EAST"
"UPS Store 3","326","600","44667.345655","NM","WEST"
"UPS Store 3","558","996","73316.014891","KS","MID-WESTERN"
"UPS Store 3","117","189","13427.350391","SD","MID-WESTERN"
"UPS Store 3","233","254","6283.412589","",""
"UPS Store 3","45","83","5638.949158","AP","PACIFIC"
"UPS Store 3","572","1104","67676.131393","NV","WEST"
"UPS Store 3","138","235","17280.072019","MT","NORTH EAST"
"UPS Store 3","428","744","48337.983081","UT","WEST"
"UPS Store 3","51","86","4759.061760","PR","NORTH EAST"
"UPS Store 3","229","455","29652.590742","HI","PACIFIC"
"UPS Store 3","462","1015","69573.903549","DC","SOUTH EAST"
"UPS Store 3","91","164","13663.689361","AK","NORTH EAST"
"UPS Store 3","63","102","8248.523961","AE","NORTH EAST"
"UPS Store 3","15","27","1575.534178","VI","SOUTH EAST"
"UPS Store 3","6","11","542.500093","GU","PACIFIC"
"UPS Store 3","9","13","667.264925","AA","NORTH EAST"
"UPS Store 4","79","134","9132.934326","_NA_US_",""
"UPS Store 4","1413","2181","106708.975547","TN","SOUTH EAST"
"UPS Store 4","220274","225747","2968776.523628","NA",""
"UPS Store 4","5969","11294","664213.445707","NJ","NORTH EAST"
"UPS Store 4","2757","4890","279769.127636","IL","MID-WESTERN"
"UPS Store 4","2537","4296","232024.020179","NC","SOUTH EAST"
"UPS Store 4","3451","6436","320738.371526","MA","NORTH EAST"
"UPS Store 4","8189","15951","945210.946281","NY","NORTH EAST"
"UPS Store 4","1719","3197","193237.979513","OH","NORTH EAST"
"UPS Store 4","2968","5392","315314.342375","PA","NORTH EAST"
"UPS Store 4","2838","5458","343275.198828","VA","SOUTH EAST"
"UPS Store 4","4167","8259","502467.498192","TX","SOUTH CENTRAL"
"UPS Store 4","511","916","58196.522399","OK","SOUTH CENTRAL"
"UPS Store 4","1363","2293","141335.764371","OR","PACIFIC"
"UPS Store 4","360","553","29240.952126","MS",""
"UPS Store 4","4335","7585","424062.626158","FL","SOUTH EAST"
"UPS Store 4","998","1694","94464.388363","IN","MID-WESTERN"
"UPS Store 4","682","1284","76469.643589","WI","MID-WESTERN"
"UPS Store 4","860","1644","97944.707142","MN",""
"UPS Store 4","409","695","39023.689132","IA","MID-WESTERN"
"UPS Store 4","2614","4939","303297.838141","MD","MID-ATLANTIC"
"UPS Store 4","753","1296","78369.081134","AL","SOUTH EAST"
"UPS Store 4","1257","2184","126950.196701","CT","NORTH EAST"
"UPS Store 4","546","930","52393.207712","RI","NORTH EAST"
"UPS Store 4","167","292","19511.640965","NE","MID-WESTERN"
"UPS Store 4","991","1934","120027.699995","WA","NORTH EAST"
"UPS Store 4","2357","3982","217510.836659","DE","MID-ATLANTIC"
"UPS Store 4","1955","3482","202769.708191","GA","SOUTH EAST"
"UPS Store 4","1152","1754","80027.576367","SC","SOUTH EAST"
"UPS Store 4","2318","4420","267615.201024","MI","MID-WESTERN"
"UPS Store 4","6528","13497","841797.509560","CA","PACIFIC"
"UPS Store 4","746","1400","85752.652082","CO","WEST"
"UPS Store 4","699","1335","79397.916222","MO","MID-WESTERN"
"UPS Store 4","800","1408","96322.074768","LA",""
"UPS Store 4","283","484","24692.097499","AR","SOUTH CENTRAL"
"UPS Store 4","590","1027","63107.016093","KY",""
"UPS Store 4","259","451","25402.143645","WV",""
"UPS Store 4","96","160","10579.009056","ND","MID-WESTERN"
"UPS Store 4","121","187","12237.370630","VT","NORTH EAST"
"UPS Store 4","135","238","14072.295815","ID","NORTH EAST"
"UPS Store 4","167","283","17647.812012","ME","NORTH EAST"
"UPS Store 4","54","88","4510.235219","WY","WEST"
"UPS Store 4","746","1525","93242.476867","AZ","SOUTH EAST"
"UPS Store 4","300","521","32238.237708","NH","NORTH EAST"
"UPS Store 4","202","392","27471.494314","NM","WEST"
"UPS Store 4","353","655","47361.272711","KS","MID-WESTERN"
"UPS Store 4","62","108","5318.542530","SD","MID-WESTERN"
"UPS Store 4","178","192","4978.635863","",""
"UPS Store 4","40","67","4431.434122","AP","PACIFIC"
"UPS Store 4","85","159","10828.278788","MT","NORTH EAST"
"UPS Store 4","395","747","44460.268608","NV","WEST"
"UPS Store 4","239","439","26082.765877","UT","WEST"
"UPS Store 4","148","309","20571.943170","HI","PACIFIC"
"UPS Store 4","297","707","47992.861266","DC","SOUTH EAST"
"UPS Store 4","42","72","2901.898032","PR","NORTH EAST"
"UPS Store 4","67","123","8750.173827","AK","NORTH EAST"
"UPS Store 4","43","77","5923.941424","AE","NORTH EAST"
"UPS Store 4","10","19","879.706017","VI","SOUTH EAST"
"UPS Store 4","5","10","476.500093","GU","PACIFIC"
"UPS Store 4","7","10","566.499090","AA","NORTH EAST"
